\relax 
\providecommand\hyper@newdestlabel[2]{}
\providecommand*{\memsetcounter}[2]{}
\catcode `"\active 
\catcode `<\active 
\catcode `>\active 
\@nameuse{es@quoting}
\providecommand\HyperFirstAtBeginDocument{\AtBeginDocument}
\HyperFirstAtBeginDocument{\ifx\hyper@anchor\@undefined
\global\let\oldcontentsline\contentsline
\gdef\contentsline#1#2#3#4{\oldcontentsline{#1}{#2}{#3}}
\global\let\oldnewlabel\newlabel
\gdef\newlabel#1#2{\newlabelxx{#1}#2}
\gdef\newlabelxx#1#2#3#4#5#6{\oldnewlabel{#1}{{#2}{#3}}}
\AtEndDocument{\ifx\hyper@anchor\@undefined
\let\contentsline\oldcontentsline
\let\newlabel\oldnewlabel
\fi}
\fi}
\global\let\hyper@last\relax 
\gdef\HyperFirstAtBeginDocument#1{#1}
\providecommand\HyField@AuxAddToFields[1]{}
\providecommand\HyField@AuxAddToCoFields[2]{}
\abx@aux@refcontext{apa/global//global/global}
\@writefile{toc}{\boolfalse {citerequest}\boolfalse {citetracker}\boolfalse {pagetracker}\boolfalse {backtracker}\relax }
\@writefile{lof}{\boolfalse {citerequest}\boolfalse {citetracker}\boolfalse {pagetracker}\boolfalse {backtracker}\relax }
\@writefile{lot}{\boolfalse {citerequest}\boolfalse {citetracker}\boolfalse {pagetracker}\boolfalse {backtracker}\relax }
\babel@aux{spanish}{}
\abx@aux@cite{artilleria2016a}
\abx@aux@segm{0}{0}{artilleria2016a}
\abx@aux@segm{0}{0}{artilleria2016a}
\@writefile{lof}{\defcounter {refsection}{0}\relax }\@writefile{lof}{\addvspace {10pt}}
\@writefile{lot}{\defcounter {refsection}{0}\relax }\@writefile{lot}{\addvspace {10pt}}
\@writefile{toc}{\defcounter {refsection}{0}\relax }\@writefile{toc}{\contentsline {chapter}{Nota del editor}{\es@scroman  {i}}{chapter*.1}}
\abx@aux@backref{1}{artilleria2016a}{0}{\es@scroman  {i}}{1}
\abx@aux@page{1}{1}
\abx@aux@backref{2}{artilleria2016a}{0}{\es@scroman  {i}}{1}
\abx@aux@page{2}{1}
\@writefile{lof}{\defcounter {refsection}{0}\relax }\@writefile{lof}{\addvspace {10pt}}
\@writefile{lot}{\defcounter {refsection}{0}\relax }\@writefile{lot}{\addvspace {10pt}}
\@writefile{toc}{\defcounter {refsection}{0}\relax }\@writefile{toc}{\contentsline {chapter}{\chapternumberline {1}Carta de Agamben \\\relax \fontsize  {10.95}{13.6}\selectfont  \abovedisplayskip 11\p@ plus3\p@ minus6\p@ \abovedisplayshortskip \z@ plus3\p@ \belowdisplayshortskip 6.5\p@ plus3.5\p@ minus3\p@ \belowdisplayskip \abovedisplayskip \let \leftmargin \leftmargini \parsep \parsepi \topsep \topsepi \itemsep \itemsepi \leftmargin \leftmargini \parsep \parsepi \topsep \topsepi \itemsep \itemsepi 11 de marzo de 1970}{1}{chapter.1}}
\@writefile{lof}{\defcounter {refsection}{0}\relax }\@writefile{lof}{\addvspace {10pt}}
\@writefile{lot}{\defcounter {refsection}{0}\relax }\@writefile{lot}{\addvspace {10pt}}
\@writefile{toc}{\defcounter {refsection}{0}\relax }\@writefile{toc}{\contentsline {chapter}{\chapternumberline {2}Carta de Arendt \\\relax \fontsize  {10.95}{13.6}\selectfont  \abovedisplayskip 11\p@ plus3\p@ minus6\p@ \abovedisplayshortskip \z@ plus3\p@ \belowdisplayshortskip 6.5\p@ plus3.5\p@ minus3\p@ \belowdisplayskip \abovedisplayskip \let \leftmargin \leftmargini \parsep \parsepi \topsep \topsepi \itemsep \itemsepi \leftmargin \leftmargini \parsep \parsepi \topsep \topsepi \itemsep \itemsepi 30 de marzo de 1970}{6}{chapter.2}}
\abx@aux@cite{fromm1962a}
\abx@aux@segm{0}{0}{fromm1962a}
\abx@aux@cite{arendt2006a}
\abx@aux@segm{0}{0}{arendt2006a}
\@writefile{toc}{\defcounter {refsection}{0}\relax }\@writefile{toc}{\contentsline {section}{\numberline {2.1}Cr\'{i}tica del hombre como trabajador}{7}{section.2.1}}
\abx@aux@backref{3}{fromm1962a}{0}{7}{7}
\abx@aux@page{3}{7}
\abx@aux@backref{4}{arendt2006a}{0}{8}{8}
\abx@aux@page{4}{8}
\abx@aux@cite{agamben2006a}
\abx@aux@segm{0}{0}{agamben2006a}
\abx@aux@segm{0}{0}{agamben2006a}
\@writefile{toc}{\defcounter {refsection}{0}\relax }\@writefile{toc}{\contentsline {section}{\numberline {2.2}Cr\'{i}tica a la m\'{a}quina antropol\'{o}gica}{9}{section.2.2}}
\abx@aux@backref{5}{agamben2006a}{0}{9}{9}
\abx@aux@page{5}{9}
\abx@aux@backref{6}{agamben2006a}{0}{9}{9}
\abx@aux@page{6}{9}
\abx@aux@segm{0}{0}{agamben2006a}
\abx@aux@segm{0}{0}{agamben2006a}
\abx@aux@backref{7}{agamben2006a}{0}{10}{10}
\abx@aux@page{7}{10}
\abx@aux@segm{0}{0}{agamben2006a}
\abx@aux@backref{8}{agamben2006a}{0}{11}{11}
\abx@aux@page{8}{11}
\abx@aux@backref{9}{agamben2006a}{0}{11}{11}
\abx@aux@page{9}{11}
\abx@aux@segm{0}{0}{agamben2006a}
\abx@aux@backref{10}{agamben2006a}{0}{13}{13}
\abx@aux@page{10}{13}
\abx@aux@cite{linares2008a}
\abx@aux@segm{0}{0}{linares2008a}
\abx@aux@backref{11}{linares2008a}{0}{15}{15}
\abx@aux@page{11}{15}
\abx@aux@segm{0}{0}{arendt2006a}
\abx@aux@backref{12}{arendt2006a}{0}{16}{16}
\abx@aux@page{12}{16}
\@writefile{lof}{\defcounter {refsection}{0}\relax }\@writefile{lof}{\addvspace {10pt}}
\@writefile{lot}{\defcounter {refsection}{0}\relax }\@writefile{lot}{\addvspace {10pt}}
\@writefile{toc}{\defcounter {refsection}{0}\relax }\@writefile{toc}{\contentsline {chapter}{\chapternumberline {3}Carta de Agamben \\\relax \fontsize  {10.95}{13.6}\selectfont  \abovedisplayskip 11\p@ plus3\p@ minus6\p@ \abovedisplayshortskip \z@ plus3\p@ \belowdisplayshortskip 6.5\p@ plus3.5\p@ minus3\p@ \belowdisplayskip \abovedisplayskip \let \leftmargin \leftmargini \parsep \parsepi \topsep \topsepi \itemsep \itemsepi \leftmargin \leftmargini \parsep \parsepi \topsep \topsepi \itemsep \itemsepi 30 de abril de 1970}{18}{chapter.3}}
\abx@aux@cite{tercera2018a}
\abx@aux@segm{0}{0}{tercera2018a}
\@writefile{lof}{\defcounter {refsection}{0}\relax }\@writefile{lof}{\addvspace {10pt}}
\@writefile{lot}{\defcounter {refsection}{0}\relax }\@writefile{lot}{\addvspace {10pt}}
\@writefile{toc}{\defcounter {refsection}{0}\relax }\@writefile{toc}{\contentsline {chapter}{Ep\'{i}logo}{20}{chapter*.2}}
\abx@aux@backref{13}{tercera2018a}{0}{20}{20}
\abx@aux@page{13}{20}
\abx@aux@defaultrefcontext{0}{agamben2006a}{apa/global//global/global}
\abx@aux@defaultrefcontext{0}{artilleria2016a}{apa/global//global/global}
\abx@aux@defaultrefcontext{0}{arendt2006a}{apa/global//global/global}
\abx@aux@defaultrefcontext{0}{fromm1962a}{apa/global//global/global}
\abx@aux@defaultrefcontext{0}{linares2008a}{apa/global//global/global}
\abx@aux@defaultrefcontext{0}{tercera2018a}{apa/global//global/global}
\@writefile{toc}{\defcounter {refsection}{0}\relax }\@writefile{toc}{\contentsline {chapter}{Bibliograf\'{\i }a}{21}{section*.4}}
\abx@aux@page{14}{21}
\abx@aux@page{15}{21}
\abx@aux@page{16}{21}
\abx@aux@page{17}{21}
\abx@aux@page{18}{21}
\abx@aux@page{19}{21}
\memsetcounter{lastsheet}{23}
\memsetcounter{lastpage}{21}
